2018-05-07 10:45:26: SYSMEX XS-1000i handler started...
2018-05-07 10:45:26: Starting Server socket on port 5150
2018-05-07 10:45:26: Waiting for Equipment connection...
2018-05-07 10:45:26: Listening on port 5150...
2018-05-07 10:45:43: SYSMEX XS-1000i is now Connected...
2018-05-07 10:45:43: Client instance created
2018-05-07 10:45:43: Client instance created
2018-05-07 10:45:43: Client thread has started
2018-05-07 10:45:43: Client thread has started
