2018-05-16 11:46:21: SYSMEX XS-1000i handler started...
2018-05-16 11:46:21: Starting Server socket on port 5150
2018-05-16 11:46:21: Waiting for Equipment connection...
2018-05-16 11:46:21: Listening on port 5150...
2018-05-16 11:46:28: SYSMEX XS-1000i is now Connected...
2018-05-16 11:46:28: Client instance created
2018-05-16 11:46:28: Client instance created
2018-05-16 11:46:28: Client thread has started
2018-05-16 11:46:28: Client thread has started
